…
## 2.2 Explore the data

### 2.2.1 POSA data

Now that the data is loaded into our **working environment**, let’s take
a look at it:

    #### Explore the data ----
    #### Plants of SA data ----

    # Take a look at the data
    posa_rich

    ## # A tibble: 86,859 × 7
    ##    QDS    Taxon        Family func_type spp_rich func_diversity phylog_diversity
    ##    <chr>  <chr>        <chr>  <chr>        <dbl>          <dbl>            <dbl>
    ##  1 3030CA Melica race… Poace… graminoid      731             24              139
    ##  2 2528CC Themeda tri… Poace… graminoid      972             24              139
    ##  3 3226DB Indigofera … Fabac… herb          1110             23              165
    ##  4 2731CB Pavetta ede… Rubia… shrub          449             18              100
    ##  5 2831CD Miscanthus … Poace… graminoid      990             24              182
    ##  6 2930CB Asterella b… Ayton… bryophyte     1578             26              219
    ##  7 3029CB Eragrostis … Poace… graminoid      574             20               98
    ##  8 2926AA Paspalum di… Poace… graminoid      605             18               96
    ##  9 3128AA Gladiolus l… Irida… geophyte       631             19              101
    ## 10 2930CB Schoenoplec… Cyper… cyperoid      1578             26              219
    ## # … with 86,849 more rows
…
Next, let’s count what the most common species across all of the QDSs
is. We will use the `count()` function and `arrange()` function.
`count()` tells us how many times each species name is found.
`arrange()` then sorts this for us. We use a negative sign to tell R we
would like the result in *descending* order.

    # What is the species found in most Quarter Degree Square (QDS)?
    posa_rich %>% count(Taxon) %>% arrange(-n)

    ## # A tibble: 7,278 × 2
    ##    Taxon                      n
    ##    <chr>                  <int>
    ##  1 Eragrostis curvula       281
    ##  2 Helichrysum nudifolium   155
    ##  3 Diospyros lycioides      147
    ##  4 Searsia pyroides         147
    ##  5 Themeda triandra         147
    ##  6 Commelina africana       134
    ##  7 Setaria sphacelata       134
    ##  8 Scabiosa columbaria      132
    ##  9 Digitaria eriantha       131
    ## 10 Helichrysum rugulosum    124
    ## # … with 7,268 more rows
…
What is the most common functional type? Again, we use the `count()` and
`arrange()` functions.

    # What is the most common functional type?
    posa_rich %>% count(func_type) %>% arrange(-n)

    ## # A tibble: 29 × 2
    ##    func_type       n
    ##    <chr>       <int>
    ##  1 herb        29910
    ##  2 shrub       10638
    ##  3 graminoid    9766
    ##  4 geophyte     7609
    ##  5 succulent    7006
    ##  6 dwarf shrub  4369
    ##  7 bryophyte    2768
    ##  8 tree         2611
    ##  9 climber      2572
    ## 10 lithophyte   2171
    ## # … with 19 more rows
…
### 2.2.2 NPP data

Now we have an idea of what’s inside our POSA data. Let’s look at our
Net Primary Productivity data, which is stored in the QDS shapefile:

    #### Spatial data (QDS) ----
    qds_cov

    ## Simple feature collection with 510 features and 5 fields
    ## Geometry type: POLYGON
    ## Dimension:     XY
    ## Bounding box:  xmin: 24.25 ymin: -33 xmax: 31.5 ymax: -24.5
    ## Geodetic CRS:  WGS 84
    ## # A tibble: 510 × 6
    ##    QDS      MAP Elev_STD   NPP NPP_var                                  geometry
    ##    <chr>  <dbl>    <dbl> <dbl>   <dbl>                             <POLYGON [°]>
    ##  1 2430CD  816.    212.  0.878  0.0974 ((30.5 -25, 30.41667 -25, 30.33333 -25, …
    ##  2 2430DA  933.    179.  0.806  0.106  ((30.75 -24.75, 30.66667 -24.75, 30.6347…
    ##  3 2430DB  928.    315.  1.07   0.117  ((31 -24.75, 30.91667 -24.75, 30.83333 -…
    ##  4 2430DC  967.    210.  0.983  0.0926 ((30.75 -25, 30.66667 -25, 30.58333 -25,…
    ##  5 2430DD 1035.    268.  1.49   0.113  ((31 -25, 30.91667 -25, 30.83333 -25, 30…
    ##  6 2525DB  568.     31.3 0.402  0.0762 ((26 -25.75, 25.91667 -25.75, 25.83333 -…
    ##  7 2525DC  542.     35.8 0.330  0.0749 ((25.75 -26, 25.66667 -26, 25.58333 -26,…
    ##  8 2525DD  579.     36.4 0.412  0.0741 ((26 -26, 25.91667 -26, 25.83333 -26, 25…
    ##  9 2526CC  618.     28.2 0.435  0.0636 ((26.25 -26, 26.16667 -26, 26.08333 -26,…
    ## 10 2526CD  647.     44.2 0.445  0.0667 ((26.5 -26, 26.41667 -26, 26.33333 -26, …
    ## # … with 500 more rows
…
